{
    "prepare_queue": {
        "installed": [],
        "uninstalled": []
    },
    "config_munge": {
        "files": {}
    },
    "installed_plugins": {
        "com.hutchind.cordova.plugins.streamingmedia": {
            "PACKAGE_NAME": "com.Revolt.www"
        },
        "cordova-plugin-braintree": {
            "PACKAGE_NAME": "com.Revolt.www"
        },
        "cordova-plugin-device": {
            "PACKAGE_NAME": "com.Revolt.www"
        },
        "cordova-plugin-inappbrowser": {
            "PACKAGE_NAME": "com.Revolt.www"
        },
        "cordova-plugin-screen-orientation": {
            "PACKAGE_NAME": "com.Revolt.www"
        },
        "cordova-plugin-whitelist": {
            "PACKAGE_NAME": "com.Revolt.www"
        },
        "cordova-sqlite-storage": {
            "PACKAGE_NAME": "com.Revolt.www"
        }
    },
    "dependent_plugins": {
        "es6-promise-plugin": {
            "PACKAGE_NAME": "com.Revolt.www"
        }
    }
}